%!PS-Adobe-2.0
%%Creator: DIAgram ANAlyser Diana
%%Title: mumugammaTreeInfo.ps
%%Orientation: Portrait
%%BoundingBox: 0 0 595 842
%%DocumentPaperSizes: A4
%%Pages: (atend)
%%DocumentFonts: (atend)
%%DocumentNeededFonts: (atend)
%%EndComments
/windinglen 10.0 def /ed{exch def}def /gs{gsave dup scale}def /gsw{gs /width
ed width setlinewidth}def /p1{/y1 ed /x1 ed}def /p2{/y2 ed /x2 ed}def /abox{newpath
x1 y1 moveto x1 y2 lineto x2 y2 lineto x2 y1 lineto closepath}def /arrowup{
/nwidth { width 1 add } def newpath 0 nwidth 1.5 mul moveto nwidth 1.2
mul nwidth 3 mul neg rlineto nwidth 2.4 mul neg 0 rlineto closepath fill
} def /arrowright{ /nwidth { width 1 add } def newpath nwidth 1.5 mul 0
moveto nwidth 3 mul neg nwidth 1.2 mul rlineto 0 nwidth 2.4 mul neg rlineto
nwidth 3 mul nwidth 1.2 mul rlineto closepath fill } def /gluon{ gsw /num
ed /ampi ed /dy ed /dx ed p1 /dy dy y1 sub def /dx dx x1 sub def /dr dx
dx mul dy dy mul add sqrt def x1 y1 translate dy dx atan rotate /num num
0.5 sub round def /inc dr num 2 mul 2 add div def /amp8 ampi 0.9 mul def
amp8 0 lt {/amp8 amp8 neg def} if /x1 inc 2 mul def newpath 0 0 moveto
inc 0.1 mul ampi 0.5 mul inc 0.5 mul ampi inc 1.4 mul ampi curveto x1 amp8
add dup ampi exch ampi neg dup x1 exch curveto 2 1 num { pop x1 amp8 sub
dup ampi neg exch ampi dup x1 inc add exch curveto /x1 x1 inc dup add add
def x1 amp8 add dup ampi exch ampi neg dup x1 exch curveto } for x1 amp8
sub dup ampi neg exch ampi dup x1 inc 0.6 mul add exch curveto x1 inc 1.5
mul add ampi dr inc 0.1 mul sub ampi 0.5 mul dr 0 curveto stroke grestore
} def /photon{ gsw /num ed /ampi ed p2 p1 /dy y2 y1 sub def /dx x2 x1 sub
def /dr dx dx mul dy dy mul add sqrt def x1 y1 translate dy dx atan rotate
/num num 2 mul 0.5 sub round def /x2 dr num div def /pi 3.141592 def /sign
1 def 1 1 num { pop newpath 0 0 moveto 4 3 div x2 mul pi div dup neg x2
add 4 3 div ampi sign mul mul dup 3 1 roll x2 0 curveto stroke /sign sign
neg def x2 0 translate } for grestore } def /photonarc{ gsw /num ed /ampli
ed /arcend ed /arcstart ed /radius ed translate /num num 2 mul round def
arcend arcstart lt { /arcend arcend 360 add def } if /arcend arcend arcstart
sub num div def arcstart rotate /arcstart arcend 2 div def /cp arcend cos
def /sp arcend sin def /cp2 arcstart cos def /sp2 arcstart sin def newpath
1 1 num { pop radius 0 moveto /beta radius arcend mul 180 ampli mul div
def /tt sp cp beta mul sub cp sp beta mul add div def /amp1 radius ampli
add 8 mul beta cp2 mul sp2 sub mul beta 4 cp add mul tt cp mul 3 mul sp
4 mul sub add radius mul sub beta tt sub 3 mul div def radius ampli add
8 mul cp2 mul 1 cp add radius mul sub 3 div amp1 sub dup radius sub beta
mul amp1 dup radius cp mul sub tt mul radius sp mul add radius cp mul radius
sp mul curveto /ampli ampli neg def arcend rotate } for stroke grestore
} def /gluearc{ gsw /num ed /ampi ed /arcend ed /arcstart ed /radius ed
translate arcend arcstart lt { /arcend arcend 360 add def } if arcstart
rotate /darc arcend arcstart sub def /dr darc 180 div 3.141592 mul radius
mul def /const darc dr div def /num num 0.5 sub round def /inc dr num 2
mul 2 add div def /amp8 ampi 0.9 mul def /amp1 radius ampi add def /amp2
radius ampi sub def /amp3 radius ampi 2 div add def /amp4 amp1 inc amp8
add const mul cos div def /amp5 amp2 amp8 const mul cos div def /amp6 amp1
inc 0.6 mul amp8 add const mul cos div def /amp7 amp1 inc 0.9 mul const
mul cos div def amp8 0 lt {/amp8 amp8 neg def} if /x1 inc 2 mul def newpath
radius 0 moveto inc 0.1 mul const mul dup cos amp3 mul exch sin amp3 mul
inc 0.5 mul const mul dup cos amp7 mul exch sin amp7 mul inc 1.4 mul const
mul dup cos amp1 mul exch sin amp1 mul curveto x1 amp8 add const mul dup
cos amp6 mul exch sin amp6 mul x1 amp8 add const mul dup cos amp5 mul exch
sin amp5 mul x1 const mul dup cos amp2 mul exch sin amp2 mul curveto 2
1 num { pop x1 amp8 sub const mul dup cos amp5 mul exch sin amp5 mul x1
amp8 sub const mul dup cos amp4 mul exch sin amp4 mul x1 inc add const
mul dup cos amp1 mul exch sin amp1 mul curveto /x1 x1 inc dup add add def
x1 amp8 add const mul dup cos amp4 mul exch sin amp4 mul x1 amp8 add const
mul dup cos amp5 mul exch sin amp5 mul x1 const mul dup cos amp2 mul exch
sin amp2 mul curveto } for x1 amp8 sub const mul dup cos amp5 mul exch
sin amp5 mul x1 amp8 sub const mul dup cos amp6 mul exch sin amp6 mul 
x1 inc 0.6 mul add const mul dup cos amp1 mul exch sin amp1 mul curveto
x1 inc 1.5 mul add const mul dup cos amp7 mul exch sin amp7 mul dr inc
0.1 mul sub const mul dup cos amp3 mul exch sin amp3 mul dr const mul dup
cos radius mul exch sin radius mul curveto stroke grestore } def /line{
gsw p2 p1 newpath x1 y1 moveto x2 y2 lineto stroke grestore } def /dashline{
gsw /dsize ed p2 p1 /r y2 y1 sub dup mul x2 x1 sub dup mul add sqrt def
/dsize r dsize 2 mul div 0.5 sub round dup 0 le { pop 0 } if 2 mul 1 add
r exch div def [dsize dsize] 0 setdash newpath x1 y1 moveto x2 y2 lineto
stroke grestore } def /carc{ gsw /arcend ed /arcstart ed /radius ed translate
newpath 0 0 radius arcstart arcend arc stroke grestore } def /dashcarc{
gsw /dsize ed /arcend ed /arcstart ed /radius ed translate /dr arcend arcstart
sub dup 0 lt { 360 add } if 3.14159 mul 180 div radius mul def /dsize dr
dsize 2 mul div 0.5 sub round dup 0 le { pop 0 } if 2 mul 1 add dr exch
div def [dsize dsize] 0 setdash newpath 0 0 radius arcstart arcend arc
stroke grestore } def /vertex{ gs /dotsize ed translate newpath 0 0 dotsize
1 add 0 360 arc 1 setgray fill stroke newpath 0 0 dotsize 0 360 arc 0 setgray
fill stroke grestore } def /pstv{ 7 index /gx exch def 6 index /gy exch
def 5 index /gr exch def 4 index /gstart exch def 3 index /gend exch def
1 index /amp exch def /gdx gstart gx sub def /gdy gend gy sub def 5 index
0 gt { gstart gend gt { /gend gend 360 add def } if }{ /x1 gstart def /gstart
gend def /gend x1 def gstart gend lt { /gstart gstart 360 add def } if
} ifelse } bind def /pln{ pstv 5 index 0 eq { /theCircle false def 6 -1
roll pop 3 -1 roll pop 1 index 1 lt { 2 -1 roll pop 1 line }{ 1 dashline
} ifelse }{ /theCircle true def 3 -1 roll pop 1 index 1 lt { 2 -1 roll
pop 3 index 0 gt { 1 carc }{ 4 -1 roll neg 4 1 roll 3 -1 roll exch 1 carc
} ifelse }{ 4 index 0 gt { 1 dashcarc }{ 5 -1 roll neg 5 1 roll 4 -1 roll
3 1 roll 1 dashcarc } ifelse } ifelse } ifelse } bind def /mkarrow { theCircle
{ gsave gx gy translate gstart gend add 2 div rotate gr 0 translate /width
amp 0.8 mul def 1 setgray arrowup 0 setgray /width amp 2 div def arrowup
grestore }{ gsave gx gy translate gdy gdx atan rotate gdx gdx mul gdy gdy
mul add sqrt 2.0 div 0 translate /width amp 0.8 mul def 1 setgray arrowright
0 setgray /width amp 2 div def arrowright grestore } ifelse } bind def
/plna{ pln /amp width 2 mul def mkarrow } def /ppgh{ pstv 3 -1 roll windinglen
div dup 3 lt { pop 3 } if 3 1 roll 3 -1 roll exch 5 index 0 eq { /theCircle
false def 6 -1 roll pop 1 phorgl }{ /theCircle true def 5 index 0 lt {
6 -1 roll neg 6 1 roll 5 -1 roll 4 1 roll } if 1 phorglarc } ifelse } bind
def /pph { /phorgl { photon } def /phorglarc { photonarc } def ppgh }bind
def /ppha { pph mkarrow } bind def /pgl { /phorgl { gluon } def /phorglarc
{ gluearc } def ppgh }bind def /pgla { pgl mkarrow } bind def /puttxt {
3 1 roll gsave moveto 1 -1 scale show grestore }bind def /pe { pop pop
pop pop pop pop pop pop } bind def 
/mv{moveto}bind def
/tr{translate}bind def
/uc{1 -1 scale}bind def
/sa{showpage}bind def
/so{show}bind def
/gv{gsave}bind def
/gg{grestore}bind def
/v{5 1 vertex} def
/cf{/Helvetica-Bold findfont 15 scalefont setfont} bind def
/vf{/Times-Bold findfont 12 scalefont setfont} bind def
/fsize 12 def
/cb{0 0 0 setrgbcolor}bind def /cr{1 0.6 0.2 setrgbcolor}bind def
/crr{1 0 0 setrgbcolor}bind def
/dblshow{dup stringwidth pop currentpoint 3 1 roll add exch 3 -1 roll 
dup currentpoint 3 -1 roll gsave currentpoint newpath moveto 1 setlinewidth 
1 setgray 1 -1 scale true charpath stroke grestore gsave moveto 1 -1 scale show 
grestore moveto}bind def
/drawtext{3 1 roll moveto dblshow}bind def
/lp{exch 3 index 3 index 12 sub 3 -1 roll crr drawtext 
drawtext cb}bind def
/lpd{crr 3 1 roll moveto exec cb} def
/ImgA{ currentfont /Symbol findfont fsize 14 mul 10 div scalefont setfont
(g) dblshow setfont} bind def
/Imgle{ currentfont /Times-Italic findfont
fsize 14 mul 10 div scalefont setfont (e) dblshow setfont} bind def
/Imglm{
currentfont /Symbol findfont fsize 14 mul 10 div scalefont setfont (m)
dblshow setfont} bind def
/Imglt{ currentfont /Symbol findfont fsize 14
mul 10 div scalefont setfont (t) dblshow setfont} bind def
/ImgZ{ currentfont
/Times-Italic findfont fsize 14 mul 10 div scalefont setfont (Z) dblshow
setfont} bind def
/ImgWm{ currentfont /Times-Italic findfont fsize 14 mul
10 div scalefont setfont (W) dblshow setfont} bind def
/Imgg{ currentfont
/Times-Italic findfont fsize 14 mul 10 div scalefont setfont (g) dblshow
setfont} bind def
/ImgH{ currentfont /Times-Italic findfont fsize 14 mul
10 div scalefont setfont (H) dblshow setfont} bind def
/ImgG0{ currentfont
/Symbol findfont fsize 14 mul 10 div scalefont setfont (c) dblshow setfont}
bind def
/ImgGm{ currentfont /Symbol findfont fsize 14 mul 10 div scalefont
setfont (f) dblshow setfont} bind def
/Imgne{ currentfont /Symbol findfont
fsize 14 mul 10 div scalefont setfont (n) dblshow setfont currentpoint
fsize 1 mul 10 div fsize -3 neg mul 10 div rmoveto currentfont /Times-Italic
findfont fsize 10 mul 10 div scalefont setfont (e) dblshow setfont moveto}
bind def
/Imgnm{ currentfont /Symbol findfont fsize 14 mul 10 div scalefont
setfont (n) dblshow setfont currentpoint fsize 1 mul 10 div fsize -3 neg
mul 10 div rmoveto currentfont /Symbol findfont fsize 10 mul 10 div scalefont
setfont (m) dblshow setfont moveto} bind def
/Imgnt{ currentfont /Symbol
findfont fsize 14 mul 10 div scalefont setfont (n) dblshow setfont currentpoint
fsize 1 mul 10 div fsize -3 neg mul 10 div rmoveto currentfont /Symbol
findfont fsize 10 mul 10 div scalefont setfont (t) dblshow setfont moveto}
bind def
/Imgu{ currentfont /Times-Italic findfont fsize 14 mul 10 div scalefont
setfont (u) dblshow setfont} bind def
/Imgc{ currentfont /Times-Italic findfont
fsize 14 mul 10 div scalefont setfont (c) dblshow setfont} bind def
/Imgt{
currentfont /Times-Italic findfont fsize 14 mul 10 div scalefont setfont
(t) dblshow setfont} bind def
/Imgd{ currentfont /Times-Italic findfont
fsize 14 mul 10 div scalefont setfont (d) dblshow setfont} bind def
/Imgs{
currentfont /Times-Italic findfont fsize 14 mul 10 div scalefont setfont
(s) dblshow setfont} bind def
/Imgb{ currentfont /Times-Italic findfont
fsize 14 mul 10 div scalefont setfont (b) dblshow setfont} bind def
/ImgghA{
currentfont /Symbol findfont fsize 14 mul 10 div scalefont setfont (h)
dblshow setfont currentpoint fsize 1 mul 10 div fsize -3 neg mul 10 div
rmoveto currentfont /Symbol findfont fsize 10 mul 10 div scalefont setfont
(g) dblshow setfont moveto} bind def
/ImgghZ{ currentfont /Symbol findfont
fsize 14 mul 10 div scalefont setfont (h) dblshow setfont currentpoint
fsize 1 mul 10 div fsize -5 neg mul 10 div rmoveto currentfont /Times-Italic
findfont fsize 10 mul 10 div scalefont setfont (Z) dblshow setfont moveto}
bind def
/Imgghm{ currentfont /Symbol findfont fsize 14 mul 10 div scalefont
setfont (h) dblshow setfont currentpoint fsize 1 mul 10 div fsize -5 neg
mul 10 div rmoveto currentfont /Times-Italic findfont fsize 10 mul 10 div
scalefont setfont (W) dblshow setfont moveto currentpoint exch pop 0 fsize
5 neg mul 10 div rmoveto currentfont /Courier-Bold findfont fsize 10 mul
10 div scalefont setfont (-) dblshow setfont currentpoint pop exch moveto}
bind def
/Imgghp{ currentfont /Symbol findfont fsize 14 mul 10 div scalefont
setfont (h) dblshow setfont currentpoint fsize 1 mul 10 div fsize -5 neg
mul 10 div rmoveto currentfont /Times-Italic findfont fsize 10 mul 10 div
scalefont setfont (W) dblshow setfont moveto currentpoint exch pop 0 fsize
5 neg mul 10 div rmoveto currentfont /Courier-Bold findfont fsize 10 mul
10 div scalefont setfont (+) dblshow setfont currentpoint pop exch moveto}
bind def
/Imggg{ currentfont /Symbol findfont fsize 14 mul 10 div scalefont
setfont (h) dblshow setfont currentpoint fsize 1 mul 10 div fsize -3 neg
mul 10 div rmoveto currentfont /Times-Italic findfont fsize 10 mul 10 div
scalefont setfont (g) dblshow setfont moveto} bind def
/ImgCT{ currentrgbcolor
1 0 0 setrgbcolor currentpoint fsize -4 mul 10 div fsize -5 neg mul 10
div rmoveto currentfont /Helvetica-Bold findfont fsize 28 mul 10 div scalefont
setfont (X) dblshow setfont moveto setrgbcolor} bind def
%%EndProlog
%%Page: 1 1
cf
297 100 mv (1) so
gv
30 792 tr
uc
gv
1.04 1.04 scale -25.00 -43.30 translate 35.00 58.30 
pop pop
116.70 200.10  v
384.40 213.40  v
259.70 206.90  v
116.70 200.10 0.00 259.70 206.90 143.16  0 2 plna
384.40 213.40 0.00 259.70 206.90 124.87  0 2 plna
50.00 105.00  v
50.00 105.00 0.00 116.70 200.10 116.16  0 2 plna
50.00 295.00  v
50.00 295.00 0.00 116.70 200.10 116.00  0 2 plna
450.00 73.30  v
384.40 213.40 0.00 450.00 73.30 154.70  0 2 plna
333.00 89.00  v
259.70 206.90 0.00 333.00 89.00 138.83  0 2 plna
450.00 326.70  v
384.40 213.40 0.00 450.00 326.70 130.92  0 2 plna
cf
cr
106.70 210.10  (1) drawtext
374.40 223.40  (2) drawtext
249.70 216.90  (3) drawtext
vf
178.20 193.50  (1) (+p1+p2) lp 
312.10 200.20  (2) (-p3-p5) lp 
cf cr
40.00 115.00  (-1) drawtext
40.00 305.00  (-2) drawtext
440.00 83.30  (-3) drawtext
323.00 99.00  (-4) drawtext
440.00 336.70  (-5) drawtext
vf
73.30 142.50  (-1) (+p1)  lp
73.30 237.50  (-2) (+p2)  lp
407.20 133.40  (-3) (+p3)  lp
286.40 138.00  (-4) (+p4)  lp
407.20 260.00  (-5) (+p5)  lp
gg
gv
0 321 tr
0 15 (Diagram 1 topology u1_ (unique u1_) momentaset 1 (of 1)) 
puttxt
1.04 1.04 scale -25.00 -43.30 translate 35.00 58.30 pop pop
116.70 200.10 0.00 259.70 206.90 143.16  8 1 pph
259.70 206.90 0.00 384.40 213.40 124.87  0 3 plna
50.00 105.00 0.00 116.70 200.10 116.16  0 2 plna 
116.70 200.10 0.00 50.00 295.00 116.00  0 2 plna 
384.40 213.40 0.00 450.00 73.30 154.70  0 3 plna 
333.00 89.00 0.00 259.70 206.90 138.83  0 3 plna 
450.00 326.70 0.00 384.40 213.40 130.92  8 1 pph 
116.70 200.10  v
384.40 213.40  v
259.70 206.90  v
178.20 193.50  {ImgA} lpd
312.10 200.20  {Imglm} lpd
73.30 142.50  {Imgle} lpd
73.30 237.50  {Imgle} lpd
407.20 133.40  {Imglm} lpd
286.40 138.00  {Imglm} lpd
407.20 260.00  {ImgA} lpd
gg
gg
sa   
%%Page: 2 2
cf
297 100 mv (2) so
gv
30 792 tr
uc
gv
1.04 1.04 scale -25.00 -43.30 translate 35.00 58.30 
pop pop
119.10 237.00  v
276.00 235.00  v
389.60 263.20  v
119.10 237.00 0.00 276.00 235.00 156.91  0 2 plna
276.00 235.00 0.00 389.60 263.20 117.05  0 2 plna
50.00 105.00  v
50.00 105.00 0.00 119.10 237.00 148.99  0 2 plna
50.00 295.00  v
50.00 295.00 0.00 119.10 237.00 90.22  0 2 plna
450.00 73.30  v
276.00 235.00 0.00 450.00 73.30 237.54  0 2 plna
450.00 200.00  v
389.60 263.20 0.00 450.00 200.00 87.42  0 2 plna
450.00 326.70  v
389.60 263.20 0.00 450.00 326.70 87.64  0 2 plna
cf
cr
109.10 247.00  (1) drawtext
266.00 245.00  (2) drawtext
379.60 273.20  (3) drawtext
vf
187.60 226.00  (1) (+p1+p2) lp 
322.80 239.10  (2) (+p1+p2-p3) lp 
cf cr
40.00 115.00  (-1) drawtext
40.00 305.00  (-2) drawtext
440.00 83.30  (-3) drawtext
440.00 210.00  (-4) drawtext
440.00 336.70  (-5) drawtext
vf
74.60 161.00  (-1) (+p1)  lp
74.60 256.00  (-2) (+p2)  lp
353.00 144.20  (-3) (+p3)  lp
409.80 221.60  (-4) (+p4)  lp
409.80 284.90  (-5) (+p5)  lp
gg
gv
0 321 tr
0 15 (Diagram 2 topology u2_ (unique u2_) momentaset 1 (of 1)) 
puttxt
1.04 1.04 scale -25.00 -43.30 translate 35.00 58.30 pop pop
119.10 237.00 0.00 276.00 235.00 156.91  8 1 pph
389.60 263.20 0.00 276.00 235.00 117.05  0 3 plna
50.00 105.00 0.00 119.10 237.00 148.99  0 2 plna 
119.10 237.00 0.00 50.00 295.00 90.22  0 2 plna 
276.00 235.00 0.00 450.00 73.30 237.54  0 3 plna 
450.00 200.00 0.00 389.60 263.20 87.42  0 3 plna 
450.00 326.70 0.00 389.60 263.20 87.64  8 1 pph 
119.10 237.00  v
276.00 235.00  v
389.60 263.20  v
187.60 226.00  {ImgA} lpd
322.80 239.10  {Imglm} lpd
74.60 161.00  {Imgle} lpd
74.60 256.00  {Imgle} lpd
353.00 144.20  {Imglm} lpd
409.80 221.60  {Imglm} lpd
409.80 284.90  {ImgA} lpd
gg
gg
sa   
%%Page: 3 3
cf
297 100 mv (3) so
gv
30 792 tr
uc
gv
1.04 1.04 scale -25.00 -43.30 translate 35.00 58.30 
pop pop
156.00 177.00  v
203.00 256.00  v
403.80 201.40  v
156.00 177.00 0.00 203.00 256.00 91.92  0 2 plna
203.00 256.00 0.00 403.80 201.40 208.09  0 2 plna
50.00 105.00  v
50.00 105.00 0.00 156.00 177.00 128.14  0 2 plna
50.00 295.00  v
50.00 295.00 0.00 203.00 256.00 157.89  0 2 plna
450.00 73.30  v
403.80 201.40 0.00 450.00 73.30 136.18  0 2 plna
450.00 200.00  v
403.80 201.40 0.00 450.00 200.00 46.22  0 2 plna
450.00 326.70  v
156.00 177.00 0.00 450.00 326.70 329.92  0 2 plna
cf
cr
146.00 187.00  (1) drawtext
193.00 266.00  (2) drawtext
393.80 211.40  (3) drawtext
vf
169.50 206.50  (1) (+p1-p5) lp 
293.40 218.70  (2) (+p1+p2-p5) lp 
cf cr
40.00 115.00  (-1) drawtext
40.00 305.00  (-2) drawtext
440.00 83.30  (-3) drawtext
440.00 210.00  (-4) drawtext
440.00 336.70  (-5) drawtext
vf
93.00 131.00  (-1) (+p1)  lp
116.50 265.50  (-2) (+p2)  lp
416.90 127.40  (-3) (+p3)  lp
416.90 190.70  (-4) (+p4)  lp
293.00 241.80  (-5) (+p5)  lp
gg
gv
0 321 tr
0 15 (Diagram 3 topology u3_ (unique u3_) momentaset 1 (of 1)) 
puttxt
1.04 1.04 scale -25.00 -43.30 translate 35.00 58.30 pop pop
156.00 177.00 0.00 203.00 256.00 91.92  0 2 plna
203.00 256.00 0.00 403.80 201.40 208.09  8 1 pph
50.00 105.00 0.00 156.00 177.00 128.14  0 2 plna 
203.00 256.00 0.00 50.00 295.00 157.89  0 2 plna 
403.80 201.40 0.00 450.00 73.30 136.18  0 3 plna 
450.00 200.00 0.00 403.80 201.40 46.22  0 3 plna 
450.00 326.70 0.00 156.00 177.00 329.92  8 1 pph 
156.00 177.00  v
203.00 256.00  v
403.80 201.40  v
169.50 206.50  {Imgle} lpd
293.40 218.70  {ImgA} lpd
93.00 131.00  {Imgle} lpd
116.50 265.50  {Imgle} lpd
416.90 127.40  {Imglm} lpd
416.90 190.70  {Imglm} lpd
293.00 241.80  {ImgA} lpd
gg
gg
sa   
%%Page: 4 4
cf
297 100 mv (4) so
gv
30 792 tr
uc
gv
1.04 1.04 scale -25.00 -43.30 translate 35.00 58.30 
pop pop
256.70 222.70  v
140.00 240.40  v
407.90 239.20  v
256.70 222.70 0.00 140.00 240.40 118.03  0 2 plna
256.70 222.70 0.00 407.90 239.20 152.10  0 2 plna
50.00 105.00  v
50.00 105.00 0.00 256.70 222.70 237.86  0 2 plna
50.00 295.00  v
50.00 295.00 0.00 140.00 240.40 105.27  0 2 plna
450.00 73.30  v
407.90 239.20 0.00 450.00 73.30 171.16  0 2 plna
450.00 200.00  v
407.90 239.20 0.00 450.00 200.00 57.52  0 2 plna
450.00 326.70  v
140.00 240.40 0.00 450.00 326.70 321.79  0 2 plna
cf
cr
246.70 232.70  (1) drawtext
130.00 250.40  (2) drawtext
397.90 249.20  (3) drawtext
vf
188.40 221.50  (1) (-p2+p5) lp 
322.30 220.90  (2) (+p1+p2-p5) lp 
cf cr
40.00 115.00  (-1) drawtext
40.00 305.00  (-2) drawtext
440.00 83.30  (-3) drawtext
440.00 210.00  (-4) drawtext
440.00 336.70  (-5) drawtext
vf
143.40 153.80  (-1) (+p1)  lp
85.00 257.70  (-2) (+p2)  lp
418.90 146.30  (-3) (+p3)  lp
418.90 209.60  (-4) (+p4)  lp
285.00 273.50  (-5) (+p5)  lp
gg
gv
0 321 tr
0 15 (Diagram 4 topology u4_ (unique u4_) momentaset 1 (of 1)) 
puttxt
1.04 1.04 scale -25.00 -43.30 translate 35.00 58.30 pop pop
256.70 222.70 0.00 140.00 240.40 118.03  0 2 plna
256.70 222.70 0.00 407.90 239.20 152.10  8 1 pph
50.00 105.00 0.00 256.70 222.70 237.86  0 2 plna 
140.00 240.40 0.00 50.00 295.00 105.27  0 2 plna 
407.90 239.20 0.00 450.00 73.30 171.16  0 3 plna 
450.00 200.00 0.00 407.90 239.20 57.52  0 3 plna 
450.00 326.70 0.00 140.00 240.40 321.79  8 1 pph 
256.70 222.70  v
140.00 240.40  v
407.90 239.20  v
188.40 221.50  {Imgle} lpd
322.30 220.90  {ImgA} lpd
143.40 153.80  {Imgle} lpd
85.00 257.70  {Imgle} lpd
418.90 146.30  {Imglm} lpd
418.90 209.60  {Imglm} lpd
285.00 273.50  {ImgA} lpd
gg
gg
sa   
%%Trailer
%%Pages: 4
%%DocumentFonts: Helvetica-Bold Times-Bold Symbol
%%+ Times-Italic
%%DocumentNeededFonts: Helvetica-Bold Times-Bold Symbol
%%+ Times-Italic
%%EOF
